('C:\\Users\\natal\\OneDrive\\Documents\\OneDrive\\Documents\\Dyacon\\wind_sensor_software\\executable\\build\\Wind '
 'Sensor Software (Beta)\\Wind Sensor Software (Beta).exe',
 False,
 False,
 True,
 'C:\\Users\\natal\\OneDrive\\Documents\\OneDrive\\Documents\\Dyacon\\wind_sensor_software\\executable\\LogoLinks.ico',
 None,
 False,
 False,
 '<?xml version="1.0" encoding="UTF-8" standalone="yes"?><assembly xmlns="urn:schemas-microsoft-com:asm.v1" manifestVersion="1.0"><assemblyIdentity type="win32" name="Wind Sensor Software (Beta)" processorArchitecture="amd64" version="1.0.0.0"/><trustInfo xmlns="urn:schemas-microsoft-com:asm.v3"><security><requestedPrivileges><requestedExecutionLevel level="asInvoker" uiAccess="false"/></requestedPrivileges></security></trustInfo><dependency><dependentAssembly><assemblyIdentity type="win32" name="Microsoft.Windows.Common-Controls" language="*" processorArchitecture="*" version="6.0.0.0" publicKeyToken="6595b64144ccf1df"/></dependentAssembly></dependency><compatibility xmlns="urn:schemas-microsoft-com:compatibility.v1"><application><supportedOS Id="{e2011457-1546-43c5-a5fe-008deee3d3f0}"/><supportedOS Id="{35138b9a-5d96-4fbd-8e2d-a2440225f93a}"/><supportedOS Id="{4a2f28e3-53b9-4441-ba9c-d69d4a4a6e38}"/><supportedOS Id="{1f676c76-80e1-4239-95bb-83d0f6d0da78}"/><supportedOS Id="{8e0f7a12-bfb3-4fe8-b9a5-48fd50a15a9a}"/></application></compatibility><application xmlns="urn:schemas-microsoft-com:asm.v3"><windowsSettings><longPathAware xmlns="http://schemas.microsoft.com/SMI/2016/WindowsSettings">true</longPathAware></windowsSettings></application></assembly>',
 True,
 True,
 False,
 None,
 None,
 None,
 'C:\\Users\\natal\\OneDrive\\Documents\\OneDrive\\Documents\\Dyacon\\wind_sensor_software\\executable\\build\\Wind '
 'Sensor Software (Beta)\\Wind Sensor Software (Beta).pkg',
 [('PYZ-00.pyz',
   'C:\\Users\\natal\\OneDrive\\Documents\\OneDrive\\Documents\\Dyacon\\wind_sensor_software\\executable\\build\\Wind '
   'Sensor Software (Beta)\\PYZ-00.pyz',
   'PYZ'),
  ('struct',
   'C:\\Users\\natal\\OneDrive\\Documents\\OneDrive\\Documents\\Dyacon\\wind_sensor_software\\executable\\build\\Wind '
   'Sensor Software (Beta)\\localpycs\\struct.pyc',
   'PYMODULE'),
  ('pyimod01_archive',
   'C:\\Users\\natal\\OneDrive\\Documents\\OneDrive\\Documents\\Dyacon\\wind_sensor_software\\executable\\build\\Wind '
   'Sensor Software (Beta)\\localpycs\\pyimod01_archive.pyc',
   'PYMODULE'),
  ('pyimod02_importers',
   'C:\\Users\\natal\\OneDrive\\Documents\\OneDrive\\Documents\\Dyacon\\wind_sensor_software\\executable\\build\\Wind '
   'Sensor Software (Beta)\\localpycs\\pyimod02_importers.pyc',
   'PYMODULE'),
  ('pyimod03_ctypes',
   'C:\\Users\\natal\\OneDrive\\Documents\\OneDrive\\Documents\\Dyacon\\wind_sensor_software\\executable\\build\\Wind '
   'Sensor Software (Beta)\\localpycs\\pyimod03_ctypes.pyc',
   'PYMODULE'),
  ('pyiboot01_bootstrap',
   'C:\\Users\\natal\\OneDrive\\Documents\\OneDrive\\Documents\\Dyacon\\wind_sensor_software\\testenv\\lib\\site-packages\\PyInstaller\\loader\\pyiboot01_bootstrap.py',
   'PYSOURCE'),
  ('pyi_rth_subprocess',
   'C:\\Users\\natal\\OneDrive\\Documents\\OneDrive\\Documents\\Dyacon\\wind_sensor_software\\testenv\\Lib\\site-packages\\PyInstaller\\hooks\\rthooks\\pyi_rth_subprocess.py',
   'PYSOURCE'),
  ('pyi_rth_inspect',
   'C:\\Users\\natal\\OneDrive\\Documents\\OneDrive\\Documents\\Dyacon\\wind_sensor_software\\testenv\\Lib\\site-packages\\PyInstaller\\hooks\\rthooks\\pyi_rth_inspect.py',
   'PYSOURCE'),
  ('pyi_rth_pkgutil',
   'C:\\Users\\natal\\OneDrive\\Documents\\OneDrive\\Documents\\Dyacon\\wind_sensor_software\\testenv\\Lib\\site-packages\\PyInstaller\\hooks\\rthooks\\pyi_rth_pkgutil.py',
   'PYSOURCE'),
  ('pyi_rth_multiprocessing',
   'C:\\Users\\natal\\OneDrive\\Documents\\OneDrive\\Documents\\Dyacon\\wind_sensor_software\\testenv\\Lib\\site-packages\\PyInstaller\\hooks\\rthooks\\pyi_rth_multiprocessing.py',
   'PYSOURCE'),
  ('pyi_rth__tkinter',
   'C:\\Users\\natal\\OneDrive\\Documents\\OneDrive\\Documents\\Dyacon\\wind_sensor_software\\testenv\\Lib\\site-packages\\PyInstaller\\hooks\\rthooks\\pyi_rth__tkinter.py',
   'PYSOURCE'),
  ('main',
   'C:\\Users\\natal\\OneDrive\\Documents\\OneDrive\\Documents\\Dyacon\\wind_sensor_software\\source\\main.py',
   'PYSOURCE')],
 [],
 False,
 False,
 1691609884,
 [('runw.exe',
   'C:\\Users\\natal\\OneDrive\\Documents\\OneDrive\\Documents\\Dyacon\\wind_sensor_software\\testenv\\lib\\site-packages\\PyInstaller\\bootloader\\Windows-64bit\\runw.exe',
   'EXECUTABLE')])
