('C:\\Users\\natal\\OneDrive\\Documents\\OneDrive\\Documents\\Dyacon\\wind_sensor_software\\executable\\build\\Wind '
 'Sensor Software (Beta)\\Wind Sensor Software (Beta).pkg',
 {'BINARY': 1,
  'DATA': 1,
  'EXECUTABLE': 1,
  'EXTENSION': 1,
  'PYMODULE': 1,
  'PYSOURCE': 1,
  'PYZ': 0,
  'SPLASH': 1},
 [('PYZ-00.pyz',
   'C:\\Users\\natal\\OneDrive\\Documents\\OneDrive\\Documents\\Dyacon\\wind_sensor_software\\executable\\build\\Wind '
   'Sensor Software (Beta)\\PYZ-00.pyz',
   'PYZ'),
  ('struct',
   'C:\\Users\\natal\\OneDrive\\Documents\\OneDrive\\Documents\\Dyacon\\wind_sensor_software\\executable\\build\\Wind '
   'Sensor Software (Beta)\\localpycs\\struct.pyc',
   'PYMODULE'),
  ('pyimod01_archive',
   'C:\\Users\\natal\\OneDrive\\Documents\\OneDrive\\Documents\\Dyacon\\wind_sensor_software\\executable\\build\\Wind '
   'Sensor Software (Beta)\\localpycs\\pyimod01_archive.pyc',
   'PYMODULE'),
  ('pyimod02_importers',
   'C:\\Users\\natal\\OneDrive\\Documents\\OneDrive\\Documents\\Dyacon\\wind_sensor_software\\executable\\build\\Wind '
   'Sensor Software (Beta)\\localpycs\\pyimod02_importers.pyc',
   'PYMODULE'),
  ('pyimod03_ctypes',
   'C:\\Users\\natal\\OneDrive\\Documents\\OneDrive\\Documents\\Dyacon\\wind_sensor_software\\executable\\build\\Wind '
   'Sensor Software (Beta)\\localpycs\\pyimod03_ctypes.pyc',
   'PYMODULE'),
  ('pyiboot01_bootstrap',
   'C:\\Users\\natal\\OneDrive\\Documents\\OneDrive\\Documents\\Dyacon\\wind_sensor_software\\testenv\\lib\\site-packages\\PyInstaller\\loader\\pyiboot01_bootstrap.py',
   'PYSOURCE'),
  ('pyi_rth_subprocess',
   'C:\\Users\\natal\\OneDrive\\Documents\\OneDrive\\Documents\\Dyacon\\wind_sensor_software\\testenv\\Lib\\site-packages\\PyInstaller\\hooks\\rthooks\\pyi_rth_subprocess.py',
   'PYSOURCE'),
  ('pyi_rth_inspect',
   'C:\\Users\\natal\\OneDrive\\Documents\\OneDrive\\Documents\\Dyacon\\wind_sensor_software\\testenv\\Lib\\site-packages\\PyInstaller\\hooks\\rthooks\\pyi_rth_inspect.py',
   'PYSOURCE'),
  ('pyi_rth_pkgutil',
   'C:\\Users\\natal\\OneDrive\\Documents\\OneDrive\\Documents\\Dyacon\\wind_sensor_software\\testenv\\Lib\\site-packages\\PyInstaller\\hooks\\rthooks\\pyi_rth_pkgutil.py',
   'PYSOURCE'),
  ('pyi_rth_multiprocessing',
   'C:\\Users\\natal\\OneDrive\\Documents\\OneDrive\\Documents\\Dyacon\\wind_sensor_software\\testenv\\Lib\\site-packages\\PyInstaller\\hooks\\rthooks\\pyi_rth_multiprocessing.py',
   'PYSOURCE'),
  ('pyi_rth__tkinter',
   'C:\\Users\\natal\\OneDrive\\Documents\\OneDrive\\Documents\\Dyacon\\wind_sensor_software\\testenv\\Lib\\site-packages\\PyInstaller\\hooks\\rthooks\\pyi_rth__tkinter.py',
   'PYSOURCE'),
  ('main',
   'C:\\Users\\natal\\OneDrive\\Documents\\OneDrive\\Documents\\Dyacon\\wind_sensor_software\\source\\main.py',
   'PYSOURCE')],
 True,
 False,
 False,
 [],
 None,
 None,
 None)
