('C:\\Users\\natal\\OneDrive\\Documents\\OneDrive\\Documents\\Dyacon\\wind_sensor_software\\executable\\build\\Wind '
 'Sensor Software (Beta)\\PYZ-00.pyz',
 [('multiprocessing.popen_spawn_posix',
   'C:\\Users\\natal\\AppData\\Local\\Programs\\Python\\Python39\\lib\\multiprocessing\\popen_spawn_posix.py',
   'PYMODULE'),
  ('multiprocessing.resource_tracker',
   'C:\\Users\\natal\\AppData\\Local\\Programs\\Python\\Python39\\lib\\multiprocessing\\resource_tracker.py',
   'PYMODULE'),
  ('signal',
   'C:\\Users\\natal\\AppData\\Local\\Programs\\Python\\Python39\\lib\\signal.py',
   'PYMODULE'),
  ('multiprocessing.util',
   'C:\\Users\\natal\\AppData\\Local\\Programs\\Python\\Python39\\lib\\multiprocessing\\util.py',
   'PYMODULE'),
  ('multiprocessing.forkserver',
   'C:\\Users\\natal\\AppData\\Local\\Programs\\Python\\Python39\\lib\\multiprocessing\\forkserver.py',
   'PYMODULE'),
  ('multiprocessing.connection',
   'C:\\Users\\natal\\AppData\\Local\\Programs\\Python\\Python39\\lib\\multiprocessing\\connection.py',
   'PYMODULE'),
  ('multiprocessing.resource_sharer',
   'C:\\Users\\natal\\AppData\\Local\\Programs\\Python\\Python39\\lib\\multiprocessing\\resource_sharer.py',
   'PYMODULE'),
  ('xmlrpc.client',
   'C:\\Users\\natal\\AppData\\Local\\Programs\\Python\\Python39\\lib\\xmlrpc\\client.py',
   'PYMODULE'),
  ('xmlrpc',
   'C:\\Users\\natal\\AppData\\Local\\Programs\\Python\\Python39\\lib\\xmlrpc\\__init__.py',
   'PYMODULE'),
  ('gzip',
   'C:\\Users\\natal\\AppData\\Local\\Programs\\Python\\Python39\\lib\\gzip.py',
   'PYMODULE'),
  ('argparse',
   'C:\\Users\\natal\\AppData\\Local\\Programs\\Python\\Python39\\lib\\argparse.py',
   'PYMODULE'),
  ('textwrap',
   'C:\\Users\\natal\\AppData\\Local\\Programs\\Python\\Python39\\lib\\textwrap.py',
   'PYMODULE'),
  ('copy',
   'C:\\Users\\natal\\AppData\\Local\\Programs\\Python\\Python39\\lib\\copy.py',
   'PYMODULE'),
  ('gettext',
   'C:\\Users\\natal\\AppData\\Local\\Programs\\Python\\Python39\\lib\\gettext.py',
   'PYMODULE'),
  ('_compression',
   'C:\\Users\\natal\\AppData\\Local\\Programs\\Python\\Python39\\lib\\_compression.py',
   'PYMODULE'),
  ('xml.parsers.expat',
   'C:\\Users\\natal\\AppData\\Local\\Programs\\Python\\Python39\\lib\\xml\\parsers\\expat.py',
   'PYMODULE'),
  ('xml.parsers',
   'C:\\Users\\natal\\AppData\\Local\\Programs\\Python\\Python39\\lib\\xml\\parsers\\__init__.py',
   'PYMODULE'),
  ('xml',
   'C:\\Users\\natal\\AppData\\Local\\Programs\\Python\\Python39\\lib\\xml\\__init__.py',
   'PYMODULE'),
  ('xml.sax.expatreader',
   'C:\\Users\\natal\\AppData\\Local\\Programs\\Python\\Python39\\lib\\xml\\sax\\expatreader.py',
   'PYMODULE'),
  ('xml.sax.saxutils',
   'C:\\Users\\natal\\AppData\\Local\\Programs\\Python\\Python39\\lib\\xml\\sax\\saxutils.py',
   'PYMODULE'),
  ('xml.sax',
   'C:\\Users\\natal\\AppData\\Local\\Programs\\Python\\Python39\\lib\\xml\\sax\\__init__.py',
   'PYMODULE'),
  ('xml.sax.handler',
   'C:\\Users\\natal\\AppData\\Local\\Programs\\Python\\Python39\\lib\\xml\\sax\\handler.py',
   'PYMODULE'),
  ('xml.sax._exceptions',
   'C:\\Users\\natal\\AppData\\Local\\Programs\\Python\\Python39\\lib\\xml\\sax\\_exceptions.py',
   'PYMODULE'),
  ('xml.sax.xmlreader',
   'C:\\Users\\natal\\AppData\\Local\\Programs\\Python\\Python39\\lib\\xml\\sax\\xmlreader.py',
   'PYMODULE'),
  ('http.client',
   'C:\\Users\\natal\\AppData\\Local\\Programs\\Python\\Python39\\lib\\http\\client.py',
   'PYMODULE'),
  ('ssl',
   'C:\\Users\\natal\\AppData\\Local\\Programs\\Python\\Python39\\lib\\ssl.py',
   'PYMODULE'),
  ('calendar',
   'C:\\Users\\natal\\AppData\\Local\\Programs\\Python\\Python39\\lib\\calendar.py',
   'PYMODULE'),
  ('http',
   'C:\\Users\\natal\\AppData\\Local\\Programs\\Python\\Python39\\lib\\http\\__init__.py',
   'PYMODULE'),
  ('email.message',
   'C:\\Users\\natal\\AppData\\Local\\Programs\\Python\\Python39\\lib\\email\\message.py',
   'PYMODULE'),
  ('email.policy',
   'C:\\Users\\natal\\AppData\\Local\\Programs\\Python\\Python39\\lib\\email\\policy.py',
   'PYMODULE'),
  ('email.contentmanager',
   'C:\\Users\\natal\\AppData\\Local\\Programs\\Python\\Python39\\lib\\email\\contentmanager.py',
   'PYMODULE'),
  ('email.quoprimime',
   'C:\\Users\\natal\\AppData\\Local\\Programs\\Python\\Python39\\lib\\email\\quoprimime.py',
   'PYMODULE'),
  ('string',
   'C:\\Users\\natal\\AppData\\Local\\Programs\\Python\\Python39\\lib\\string.py',
   'PYMODULE'),
  ('email.headerregistry',
   'C:\\Users\\natal\\AppData\\Local\\Programs\\Python\\Python39\\lib\\email\\headerregistry.py',
   'PYMODULE'),
  ('email._header_value_parser',
   'C:\\Users\\natal\\AppData\\Local\\Programs\\Python\\Python39\\lib\\email\\_header_value_parser.py',
   'PYMODULE'),
  ('email.iterators',
   'C:\\Users\\natal\\AppData\\Local\\Programs\\Python\\Python39\\lib\\email\\iterators.py',
   'PYMODULE'),
  ('email.generator',
   'C:\\Users\\natal\\AppData\\Local\\Programs\\Python\\Python39\\lib\\email\\generator.py',
   'PYMODULE'),
  ('random',
   'C:\\Users\\natal\\AppData\\Local\\Programs\\Python\\Python39\\lib\\random.py',
   'PYMODULE'),
  ('statistics',
   'C:\\Users\\natal\\AppData\\Local\\Programs\\Python\\Python39\\lib\\statistics.py',
   'PYMODULE'),
  ('fractions',
   'C:\\Users\\natal\\AppData\\Local\\Programs\\Python\\Python39\\lib\\fractions.py',
   'PYMODULE'),
  ('numbers',
   'C:\\Users\\natal\\AppData\\Local\\Programs\\Python\\Python39\\lib\\numbers.py',
   'PYMODULE'),
  ('hashlib',
   'C:\\Users\\natal\\AppData\\Local\\Programs\\Python\\Python39\\lib\\hashlib.py',
   'PYMODULE'),
  ('bisect',
   'C:\\Users\\natal\\AppData\\Local\\Programs\\Python\\Python39\\lib\\bisect.py',
   'PYMODULE'),
  ('email._encoded_words',
   'C:\\Users\\natal\\AppData\\Local\\Programs\\Python\\Python39\\lib\\email\\_encoded_words.py',
   'PYMODULE'),
  ('email.charset',
   'C:\\Users\\natal\\AppData\\Local\\Programs\\Python\\Python39\\lib\\email\\charset.py',
   'PYMODULE'),
  ('email.encoders',
   'C:\\Users\\natal\\AppData\\Local\\Programs\\Python\\Python39\\lib\\email\\encoders.py',
   'PYMODULE'),
  ('email.base64mime',
   'C:\\Users\\natal\\AppData\\Local\\Programs\\Python\\Python39\\lib\\email\\base64mime.py',
   'PYMODULE'),
  ('email._policybase',
   'C:\\Users\\natal\\AppData\\Local\\Programs\\Python\\Python39\\lib\\email\\_policybase.py',
   'PYMODULE'),
  ('email.header',
   'C:\\Users\\natal\\AppData\\Local\\Programs\\Python\\Python39\\lib\\email\\header.py',
   'PYMODULE'),
  ('email.errors',
   'C:\\Users\\natal\\AppData\\Local\\Programs\\Python\\Python39\\lib\\email\\errors.py',
   'PYMODULE'),
  ('email.utils',
   'C:\\Users\\natal\\AppData\\Local\\Programs\\Python\\Python39\\lib\\email\\utils.py',
   'PYMODULE'),
  ('email._parseaddr',
   'C:\\Users\\natal\\AppData\\Local\\Programs\\Python\\Python39\\lib\\email\\_parseaddr.py',
   'PYMODULE'),
  ('email',
   'C:\\Users\\natal\\AppData\\Local\\Programs\\Python\\Python39\\lib\\email\\__init__.py',
   'PYMODULE'),
  ('quopri',
   'C:\\Users\\natal\\AppData\\Local\\Programs\\Python\\Python39\\lib\\quopri.py',
   'PYMODULE'),
  ('getopt',
   'C:\\Users\\natal\\AppData\\Local\\Programs\\Python\\Python39\\lib\\getopt.py',
   'PYMODULE'),
  ('uu',
   'C:\\Users\\natal\\AppData\\Local\\Programs\\Python\\Python39\\lib\\uu.py',
   'PYMODULE'),
  ('optparse',
   'C:\\Users\\natal\\AppData\\Local\\Programs\\Python\\Python39\\lib\\optparse.py',
   'PYMODULE'),
  ('email.parser',
   'C:\\Users\\natal\\AppData\\Local\\Programs\\Python\\Python39\\lib\\email\\parser.py',
   'PYMODULE'),
  ('email.feedparser',
   'C:\\Users\\natal\\AppData\\Local\\Programs\\Python\\Python39\\lib\\email\\feedparser.py',
   'PYMODULE'),
  ('decimal',
   'C:\\Users\\natal\\AppData\\Local\\Programs\\Python\\Python39\\lib\\decimal.py',
   'PYMODULE'),
  ('_pydecimal',
   'C:\\Users\\natal\\AppData\\Local\\Programs\\Python\\Python39\\lib\\_pydecimal.py',
   'PYMODULE'),
  ('contextvars',
   'C:\\Users\\natal\\AppData\\Local\\Programs\\Python\\Python39\\lib\\contextvars.py',
   'PYMODULE'),
  ('datetime',
   'C:\\Users\\natal\\AppData\\Local\\Programs\\Python\\Python39\\lib\\datetime.py',
   'PYMODULE'),
  ('_strptime',
   'C:\\Users\\natal\\AppData\\Local\\Programs\\Python\\Python39\\lib\\_strptime.py',
   'PYMODULE'),
  ('base64',
   'C:\\Users\\natal\\AppData\\Local\\Programs\\Python\\Python39\\lib\\base64.py',
   'PYMODULE'),
  ('hmac',
   'C:\\Users\\natal\\AppData\\Local\\Programs\\Python\\Python39\\lib\\hmac.py',
   'PYMODULE'),
  ('socket',
   'C:\\Users\\natal\\AppData\\Local\\Programs\\Python\\Python39\\lib\\socket.py',
   'PYMODULE'),
  ('selectors',
   'C:\\Users\\natal\\AppData\\Local\\Programs\\Python\\Python39\\lib\\selectors.py',
   'PYMODULE'),
  ('tempfile',
   'C:\\Users\\natal\\AppData\\Local\\Programs\\Python\\Python39\\lib\\tempfile.py',
   'PYMODULE'),
  ('shutil',
   'C:\\Users\\natal\\AppData\\Local\\Programs\\Python\\Python39\\lib\\shutil.py',
   'PYMODULE'),
  ('zipfile',
   'C:\\Users\\natal\\AppData\\Local\\Programs\\Python\\Python39\\lib\\zipfile.py',
   'PYMODULE'),
  ('py_compile',
   'C:\\Users\\natal\\AppData\\Local\\Programs\\Python\\Python39\\lib\\py_compile.py',
   'PYMODULE'),
  ('importlib.machinery',
   'C:\\Users\\natal\\AppData\\Local\\Programs\\Python\\Python39\\lib\\importlib\\machinery.py',
   'PYMODULE'),
  ('importlib',
   'C:\\Users\\natal\\AppData\\Local\\Programs\\Python\\Python39\\lib\\importlib\\__init__.py',
   'PYMODULE'),
  ('importlib._common',
   'C:\\Users\\natal\\AppData\\Local\\Programs\\Python\\Python39\\lib\\importlib\\_common.py',
   'PYMODULE'),
  ('importlib._bootstrap',
   'C:\\Users\\natal\\AppData\\Local\\Programs\\Python\\Python39\\lib\\importlib\\_bootstrap.py',
   'PYMODULE'),
  ('importlib._bootstrap_external',
   'C:\\Users\\natal\\AppData\\Local\\Programs\\Python\\Python39\\lib\\importlib\\_bootstrap_external.py',
   'PYMODULE'),
  ('importlib.metadata',
   'C:\\Users\\natal\\AppData\\Local\\Programs\\Python\\Python39\\lib\\importlib\\metadata.py',
   'PYMODULE'),
  ('importlib.abc',
   'C:\\Users\\natal\\AppData\\Local\\Programs\\Python\\Python39\\lib\\importlib\\abc.py',
   'PYMODULE'),
  ('typing',
   'C:\\Users\\natal\\AppData\\Local\\Programs\\Python\\Python39\\lib\\typing.py',
   'PYMODULE'),
  ('configparser',
   'C:\\Users\\natal\\AppData\\Local\\Programs\\Python\\Python39\\lib\\configparser.py',
   'PYMODULE'),
  ('csv',
   'C:\\Users\\natal\\AppData\\Local\\Programs\\Python\\Python39\\lib\\csv.py',
   'PYMODULE'),
  ('contextlib',
   'C:\\Users\\natal\\AppData\\Local\\Programs\\Python\\Python39\\lib\\contextlib.py',
   'PYMODULE'),
  ('importlib.util',
   'C:\\Users\\natal\\AppData\\Local\\Programs\\Python\\Python39\\lib\\importlib\\util.py',
   'PYMODULE'),
  ('tarfile',
   'C:\\Users\\natal\\AppData\\Local\\Programs\\Python\\Python39\\lib\\tarfile.py',
   'PYMODULE'),
  ('lzma',
   'C:\\Users\\natal\\AppData\\Local\\Programs\\Python\\Python39\\lib\\lzma.py',
   'PYMODULE'),
  ('bz2',
   'C:\\Users\\natal\\AppData\\Local\\Programs\\Python\\Python39\\lib\\bz2.py',
   'PYMODULE'),
  ('logging',
   'C:\\Users\\natal\\AppData\\Local\\Programs\\Python\\Python39\\lib\\logging\\__init__.py',
   'PYMODULE'),
  ('pickle',
   'C:\\Users\\natal\\AppData\\Local\\Programs\\Python\\Python39\\lib\\pickle.py',
   'PYMODULE'),
  ('pprint',
   'C:\\Users\\natal\\AppData\\Local\\Programs\\Python\\Python39\\lib\\pprint.py',
   'PYMODULE'),
  ('_compat_pickle',
   'C:\\Users\\natal\\AppData\\Local\\Programs\\Python\\Python39\\lib\\_compat_pickle.py',
   'PYMODULE'),
  ('multiprocessing.process',
   'C:\\Users\\natal\\AppData\\Local\\Programs\\Python\\Python39\\lib\\multiprocessing\\process.py',
   'PYMODULE'),
  ('multiprocessing.context',
   'C:\\Users\\natal\\AppData\\Local\\Programs\\Python\\Python39\\lib\\multiprocessing\\context.py',
   'PYMODULE'),
  ('multiprocessing.popen_forkserver',
   'C:\\Users\\natal\\AppData\\Local\\Programs\\Python\\Python39\\lib\\multiprocessing\\popen_forkserver.py',
   'PYMODULE'),
  ('multiprocessing.sharedctypes',
   'C:\\Users\\natal\\AppData\\Local\\Programs\\Python\\Python39\\lib\\multiprocessing\\sharedctypes.py',
   'PYMODULE'),
  ('multiprocessing.heap',
   'C:\\Users\\natal\\AppData\\Local\\Programs\\Python\\Python39\\lib\\multiprocessing\\heap.py',
   'PYMODULE'),
  ('ctypes',
   'C:\\Users\\natal\\AppData\\Local\\Programs\\Python\\Python39\\lib\\ctypes\\__init__.py',
   'PYMODULE'),
  ('ctypes._endian',
   'C:\\Users\\natal\\AppData\\Local\\Programs\\Python\\Python39\\lib\\ctypes\\_endian.py',
   'PYMODULE'),
  ('multiprocessing.pool',
   'C:\\Users\\natal\\AppData\\Local\\Programs\\Python\\Python39\\lib\\multiprocessing\\pool.py',
   'PYMODULE'),
  ('multiprocessing.dummy',
   'C:\\Users\\natal\\AppData\\Local\\Programs\\Python\\Python39\\lib\\multiprocessing\\dummy\\__init__.py',
   'PYMODULE'),
  ('multiprocessing.dummy.connection',
   'C:\\Users\\natal\\AppData\\Local\\Programs\\Python\\Python39\\lib\\multiprocessing\\dummy\\connection.py',
   'PYMODULE'),
  ('queue',
   'C:\\Users\\natal\\AppData\\Local\\Programs\\Python\\Python39\\lib\\queue.py',
   'PYMODULE'),
  ('multiprocessing.queues',
   'C:\\Users\\natal\\AppData\\Local\\Programs\\Python\\Python39\\lib\\multiprocessing\\queues.py',
   'PYMODULE'),
  ('multiprocessing.synchronize',
   'C:\\Users\\natal\\AppData\\Local\\Programs\\Python\\Python39\\lib\\multiprocessing\\synchronize.py',
   'PYMODULE'),
  ('multiprocessing.managers',
   'C:\\Users\\natal\\AppData\\Local\\Programs\\Python\\Python39\\lib\\multiprocessing\\managers.py',
   'PYMODULE'),
  ('multiprocessing.shared_memory',
   'C:\\Users\\natal\\AppData\\Local\\Programs\\Python\\Python39\\lib\\multiprocessing\\shared_memory.py',
   'PYMODULE'),
  ('secrets',
   'C:\\Users\\natal\\AppData\\Local\\Programs\\Python\\Python39\\lib\\secrets.py',
   'PYMODULE'),
  ('multiprocessing.reduction',
   'C:\\Users\\natal\\AppData\\Local\\Programs\\Python\\Python39\\lib\\multiprocessing\\reduction.py',
   'PYMODULE'),
  ('multiprocessing.popen_fork',
   'C:\\Users\\natal\\AppData\\Local\\Programs\\Python\\Python39\\lib\\multiprocessing\\popen_fork.py',
   'PYMODULE'),
  ('multiprocessing.popen_spawn_win32',
   'C:\\Users\\natal\\AppData\\Local\\Programs\\Python\\Python39\\lib\\multiprocessing\\popen_spawn_win32.py',
   'PYMODULE'),
  ('subprocess',
   'C:\\Users\\natal\\AppData\\Local\\Programs\\Python\\Python39\\lib\\subprocess.py',
   'PYMODULE'),
  ('multiprocessing.spawn',
   'C:\\Users\\natal\\AppData\\Local\\Programs\\Python\\Python39\\lib\\multiprocessing\\spawn.py',
   'PYMODULE'),
  ('runpy',
   'C:\\Users\\natal\\AppData\\Local\\Programs\\Python\\Python39\\lib\\runpy.py',
   'PYMODULE'),
  ('pkgutil',
   'C:\\Users\\natal\\AppData\\Local\\Programs\\Python\\Python39\\lib\\pkgutil.py',
   'PYMODULE'),
  ('zipimport',
   'C:\\Users\\natal\\AppData\\Local\\Programs\\Python\\Python39\\lib\\zipimport.py',
   'PYMODULE'),
  ('inspect',
   'C:\\Users\\natal\\AppData\\Local\\Programs\\Python\\Python39\\lib\\inspect.py',
   'PYMODULE'),
  ('dis',
   'C:\\Users\\natal\\AppData\\Local\\Programs\\Python\\Python39\\lib\\dis.py',
   'PYMODULE'),
  ('opcode',
   'C:\\Users\\natal\\AppData\\Local\\Programs\\Python\\Python39\\lib\\opcode.py',
   'PYMODULE'),
  ('ast',
   'C:\\Users\\natal\\AppData\\Local\\Programs\\Python\\Python39\\lib\\ast.py',
   'PYMODULE'),
  ('multiprocessing',
   'C:\\Users\\natal\\AppData\\Local\\Programs\\Python\\Python39\\lib\\multiprocessing\\__init__.py',
   'PYMODULE'),
  ('stringprep',
   'C:\\Users\\natal\\AppData\\Local\\Programs\\Python\\Python39\\lib\\stringprep.py',
   'PYMODULE'),
  ('tracemalloc',
   'C:\\Users\\natal\\AppData\\Local\\Programs\\Python\\Python39\\lib\\tracemalloc.py',
   'PYMODULE'),
  ('getpass',
   'C:\\Users\\natal\\AppData\\Local\\Programs\\Python\\Python39\\lib\\getpass.py',
   'PYMODULE'),
  ('nturl2path',
   'C:\\Users\\natal\\AppData\\Local\\Programs\\Python\\Python39\\lib\\nturl2path.py',
   'PYMODULE'),
  ('ftplib',
   'C:\\Users\\natal\\AppData\\Local\\Programs\\Python\\Python39\\lib\\ftplib.py',
   'PYMODULE'),
  ('netrc',
   'C:\\Users\\natal\\AppData\\Local\\Programs\\Python\\Python39\\lib\\netrc.py',
   'PYMODULE'),
  ('shlex',
   'C:\\Users\\natal\\AppData\\Local\\Programs\\Python\\Python39\\lib\\shlex.py',
   'PYMODULE'),
  ('mimetypes',
   'C:\\Users\\natal\\AppData\\Local\\Programs\\Python\\Python39\\lib\\mimetypes.py',
   'PYMODULE'),
  ('http.cookiejar',
   'C:\\Users\\natal\\AppData\\Local\\Programs\\Python\\Python39\\lib\\http\\cookiejar.py',
   'PYMODULE'),
  ('_py_abc',
   'C:\\Users\\natal\\AppData\\Local\\Programs\\Python\\Python39\\lib\\_py_abc.py',
   'PYMODULE'),
  ('interface',
   'C:\\Users\\natal\\OneDrive\\Documents\\OneDrive\\Documents\\Dyacon\\wind_sensor_software\\source\\interface.py',
   'PYMODULE'),
  ('measurement_log',
   'C:\\Users\\natal\\OneDrive\\Documents\\OneDrive\\Documents\\Dyacon\\wind_sensor_software\\source\\measurement_log.py',
   'PYMODULE'),
  ('ua1',
   'C:\\Users\\natal\\OneDrive\\Documents\\OneDrive\\Documents\\Dyacon\\wind_sensor_software\\source\\ua1.py',
   'PYMODULE'),
  ('wsd2',
   'C:\\Users\\natal\\OneDrive\\Documents\\OneDrive\\Documents\\Dyacon\\wind_sensor_software\\source\\wsd2.py',
   'PYMODULE'),
  ('serial.serialutil',
   'C:\\Users\\natal\\OneDrive\\Documents\\OneDrive\\Documents\\Dyacon\\wind_sensor_software\\testenv\\Lib\\site-packages\\serial\\serialutil.py',
   'PYMODULE'),
  ('__future__',
   'C:\\Users\\natal\\AppData\\Local\\Programs\\Python\\Python39\\lib\\__future__.py',
   'PYMODULE'),
  ('serial',
   'C:\\Users\\natal\\OneDrive\\Documents\\OneDrive\\Documents\\Dyacon\\wind_sensor_software\\testenv\\Lib\\site-packages\\serial\\__init__.py',
   'PYMODULE'),
  ('serial.serialjava',
   'C:\\Users\\natal\\OneDrive\\Documents\\OneDrive\\Documents\\Dyacon\\wind_sensor_software\\testenv\\Lib\\site-packages\\serial\\serialjava.py',
   'PYMODULE'),
  ('serial.serialposix',
   'C:\\Users\\natal\\OneDrive\\Documents\\OneDrive\\Documents\\Dyacon\\wind_sensor_software\\testenv\\Lib\\site-packages\\serial\\serialposix.py',
   'PYMODULE'),
  ('serial.serialwin32',
   'C:\\Users\\natal\\OneDrive\\Documents\\OneDrive\\Documents\\Dyacon\\wind_sensor_software\\testenv\\Lib\\site-packages\\serial\\serialwin32.py',
   'PYMODULE'),
  ('serial.win32',
   'C:\\Users\\natal\\OneDrive\\Documents\\OneDrive\\Documents\\Dyacon\\wind_sensor_software\\testenv\\Lib\\site-packages\\serial\\win32.py',
   'PYMODULE'),
  ('ctypes.wintypes',
   'C:\\Users\\natal\\AppData\\Local\\Programs\\Python\\Python39\\lib\\ctypes\\wintypes.py',
   'PYMODULE'),
  ('serial.serialcli',
   'C:\\Users\\natal\\OneDrive\\Documents\\OneDrive\\Documents\\Dyacon\\wind_sensor_software\\testenv\\Lib\\site-packages\\serial\\serialcli.py',
   'PYMODULE'),
  ('wsd1',
   'C:\\Users\\natal\\OneDrive\\Documents\\OneDrive\\Documents\\Dyacon\\wind_sensor_software\\source\\wsd1.py',
   'PYMODULE'),
  ('struct',
   'C:\\Users\\natal\\AppData\\Local\\Programs\\Python\\Python39\\lib\\struct.py',
   'PYMODULE'),
  ('numpy',
   'C:\\Users\\natal\\OneDrive\\Documents\\OneDrive\\Documents\\Dyacon\\wind_sensor_software\\testenv\\Lib\\site-packages\\numpy\\__init__.py',
   'PYMODULE'),
  ('numpy.core._dtype_ctypes',
   'C:\\Users\\natal\\OneDrive\\Documents\\OneDrive\\Documents\\Dyacon\\wind_sensor_software\\testenv\\Lib\\site-packages\\numpy\\core\\_dtype_ctypes.py',
   'PYMODULE'),
  ('numpy.version',
   'C:\\Users\\natal\\OneDrive\\Documents\\OneDrive\\Documents\\Dyacon\\wind_sensor_software\\testenv\\Lib\\site-packages\\numpy\\version.py',
   'PYMODULE'),
  ('numpy._version',
   'C:\\Users\\natal\\OneDrive\\Documents\\OneDrive\\Documents\\Dyacon\\wind_sensor_software\\testenv\\Lib\\site-packages\\numpy\\_version.py',
   'PYMODULE'),
  ('json',
   'C:\\Users\\natal\\AppData\\Local\\Programs\\Python\\Python39\\lib\\json\\__init__.py',
   'PYMODULE'),
  ('json.encoder',
   'C:\\Users\\natal\\AppData\\Local\\Programs\\Python\\Python39\\lib\\json\\encoder.py',
   'PYMODULE'),
  ('json.decoder',
   'C:\\Users\\natal\\AppData\\Local\\Programs\\Python\\Python39\\lib\\json\\decoder.py',
   'PYMODULE'),
  ('json.scanner',
   'C:\\Users\\natal\\AppData\\Local\\Programs\\Python\\Python39\\lib\\json\\scanner.py',
   'PYMODULE'),
  ('numpy._pytesttester',
   'C:\\Users\\natal\\OneDrive\\Documents\\OneDrive\\Documents\\Dyacon\\wind_sensor_software\\testenv\\Lib\\site-packages\\numpy\\_pytesttester.py',
   'PYMODULE'),
  ('numpy.testing',
   'C:\\Users\\natal\\OneDrive\\Documents\\OneDrive\\Documents\\Dyacon\\wind_sensor_software\\testenv\\Lib\\site-packages\\numpy\\testing\\__init__.py',
   'PYMODULE'),
  ('numpy.testing.overrides',
   'C:\\Users\\natal\\OneDrive\\Documents\\OneDrive\\Documents\\Dyacon\\wind_sensor_software\\testenv\\Lib\\site-packages\\numpy\\testing\\overrides.py',
   'PYMODULE'),
  ('numpy.lib.recfunctions',
   'C:\\Users\\natal\\OneDrive\\Documents\\OneDrive\\Documents\\Dyacon\\wind_sensor_software\\testenv\\Lib\\site-packages\\numpy\\lib\\recfunctions.py',
   'PYMODULE'),
  ('numpy.lib._iotools',
   'C:\\Users\\natal\\OneDrive\\Documents\\OneDrive\\Documents\\Dyacon\\wind_sensor_software\\testenv\\Lib\\site-packages\\numpy\\lib\\_iotools.py',
   'PYMODULE'),
  ('numpy.core.numeric',
   'C:\\Users\\natal\\OneDrive\\Documents\\OneDrive\\Documents\\Dyacon\\wind_sensor_software\\testenv\\Lib\\site-packages\\numpy\\core\\numeric.py',
   'PYMODULE'),
  ('numpy.core._asarray',
   'C:\\Users\\natal\\OneDrive\\Documents\\OneDrive\\Documents\\Dyacon\\wind_sensor_software\\testenv\\Lib\\site-packages\\numpy\\core\\_asarray.py',
   'PYMODULE'),
  ('numpy.core.arrayprint',
   'C:\\Users\\natal\\OneDrive\\Documents\\OneDrive\\Documents\\Dyacon\\wind_sensor_software\\testenv\\Lib\\site-packages\\numpy\\core\\arrayprint.py',
   'PYMODULE'),
  ('numpy.core.fromnumeric',
   'C:\\Users\\natal\\OneDrive\\Documents\\OneDrive\\Documents\\Dyacon\\wind_sensor_software\\testenv\\Lib\\site-packages\\numpy\\core\\fromnumeric.py',
   'PYMODULE'),
  ('numpy.core._methods',
   'C:\\Users\\natal\\OneDrive\\Documents\\OneDrive\\Documents\\Dyacon\\wind_sensor_software\\testenv\\Lib\\site-packages\\numpy\\core\\_methods.py',
   'PYMODULE'),
  ('numpy.lib.stride_tricks',
   'C:\\Users\\natal\\OneDrive\\Documents\\OneDrive\\Documents\\Dyacon\\wind_sensor_software\\testenv\\Lib\\site-packages\\numpy\\lib\\stride_tricks.py',
   'PYMODULE'),
  ('numpy.core._exceptions',
   'C:\\Users\\natal\\OneDrive\\Documents\\OneDrive\\Documents\\Dyacon\\wind_sensor_software\\testenv\\Lib\\site-packages\\numpy\\core\\_exceptions.py',
   'PYMODULE'),
  ('numpy._utils',
   'C:\\Users\\natal\\OneDrive\\Documents\\OneDrive\\Documents\\Dyacon\\wind_sensor_software\\testenv\\Lib\\site-packages\\numpy\\_utils\\__init__.py',
   'PYMODULE'),
  ('numpy.core._ufunc_config',
   'C:\\Users\\natal\\OneDrive\\Documents\\OneDrive\\Documents\\Dyacon\\wind_sensor_software\\testenv\\Lib\\site-packages\\numpy\\core\\_ufunc_config.py',
   'PYMODULE'),
  ('numpy.core.numerictypes',
   'C:\\Users\\natal\\OneDrive\\Documents\\OneDrive\\Documents\\Dyacon\\wind_sensor_software\\testenv\\Lib\\site-packages\\numpy\\core\\numerictypes.py',
   'PYMODULE'),
  ('numpy.core._dtype',
   'C:\\Users\\natal\\OneDrive\\Documents\\OneDrive\\Documents\\Dyacon\\wind_sensor_software\\testenv\\Lib\\site-packages\\numpy\\core\\_dtype.py',
   'PYMODULE'),
  ('numpy.core._type_aliases',
   'C:\\Users\\natal\\OneDrive\\Documents\\OneDrive\\Documents\\Dyacon\\wind_sensor_software\\testenv\\Lib\\site-packages\\numpy\\core\\_type_aliases.py',
   'PYMODULE'),
  ('numpy.core._string_helpers',
   'C:\\Users\\natal\\OneDrive\\Documents\\OneDrive\\Documents\\Dyacon\\wind_sensor_software\\testenv\\Lib\\site-packages\\numpy\\core\\_string_helpers.py',
   'PYMODULE'),
  ('numpy.core.shape_base',
   'C:\\Users\\natal\\OneDrive\\Documents\\OneDrive\\Documents\\Dyacon\\wind_sensor_software\\testenv\\Lib\\site-packages\\numpy\\core\\shape_base.py',
   'PYMODULE'),
  ('numpy.core.multiarray',
   'C:\\Users\\natal\\OneDrive\\Documents\\OneDrive\\Documents\\Dyacon\\wind_sensor_software\\testenv\\Lib\\site-packages\\numpy\\core\\multiarray.py',
   'PYMODULE'),
  ('numpy.ma.mrecords',
   'C:\\Users\\natal\\OneDrive\\Documents\\OneDrive\\Documents\\Dyacon\\wind_sensor_software\\testenv\\Lib\\site-packages\\numpy\\ma\\mrecords.py',
   'PYMODULE'),
  ('numpy.core.records',
   'C:\\Users\\natal\\OneDrive\\Documents\\OneDrive\\Documents\\Dyacon\\wind_sensor_software\\testenv\\Lib\\site-packages\\numpy\\core\\records.py',
   'PYMODULE'),
  ('numpy.core.umath',
   'C:\\Users\\natal\\OneDrive\\Documents\\OneDrive\\Documents\\Dyacon\\wind_sensor_software\\testenv\\Lib\\site-packages\\numpy\\core\\umath.py',
   'PYMODULE'),
  ('numpy.core.overrides',
   'C:\\Users\\natal\\OneDrive\\Documents\\OneDrive\\Documents\\Dyacon\\wind_sensor_software\\testenv\\Lib\\site-packages\\numpy\\core\\overrides.py',
   'PYMODULE'),
  ('numpy._utils._inspect',
   'C:\\Users\\natal\\OneDrive\\Documents\\OneDrive\\Documents\\Dyacon\\wind_sensor_software\\testenv\\Lib\\site-packages\\numpy\\_utils\\_inspect.py',
   'PYMODULE'),
  ('numpy.testing._private.extbuild',
   'C:\\Users\\natal\\OneDrive\\Documents\\OneDrive\\Documents\\Dyacon\\wind_sensor_software\\testenv\\Lib\\site-packages\\numpy\\testing\\_private\\extbuild.py',
   'PYMODULE'),
  ('sysconfig',
   'C:\\Users\\natal\\AppData\\Local\\Programs\\Python\\Python39\\lib\\sysconfig.py',
   'PYMODULE'),
  ('_aix_support',
   'C:\\Users\\natal\\AppData\\Local\\Programs\\Python\\Python39\\lib\\_aix_support.py',
   'PYMODULE'),
  ('_bootsubprocess',
   'C:\\Users\\natal\\AppData\\Local\\Programs\\Python\\Python39\\lib\\_bootsubprocess.py',
   'PYMODULE'),
  ('numpy.testing._private.utils',
   'C:\\Users\\natal\\OneDrive\\Documents\\OneDrive\\Documents\\Dyacon\\wind_sensor_software\\testenv\\Lib\\site-packages\\numpy\\testing\\_private\\utils.py',
   'PYMODULE'),
  ('doctest',
   'C:\\Users\\natal\\AppData\\Local\\Programs\\Python\\Python39\\lib\\doctest.py',
   'PYMODULE'),
  ('pdb',
   'C:\\Users\\natal\\AppData\\Local\\Programs\\Python\\Python39\\lib\\pdb.py',
   'PYMODULE'),
  ('pydoc',
   'C:\\Users\\natal\\AppData\\Local\\Programs\\Python\\Python39\\lib\\pydoc.py',
   'PYMODULE'),
  ('webbrowser',
   'C:\\Users\\natal\\AppData\\Local\\Programs\\Python\\Python39\\lib\\webbrowser.py',
   'PYMODULE'),
  ('http.server',
   'C:\\Users\\natal\\AppData\\Local\\Programs\\Python\\Python39\\lib\\http\\server.py',
   'PYMODULE'),
  ('socketserver',
   'C:\\Users\\natal\\AppData\\Local\\Programs\\Python\\Python39\\lib\\socketserver.py',
   'PYMODULE'),
  ('html',
   'C:\\Users\\natal\\AppData\\Local\\Programs\\Python\\Python39\\lib\\html\\__init__.py',
   'PYMODULE'),
  ('html.entities',
   'C:\\Users\\natal\\AppData\\Local\\Programs\\Python\\Python39\\lib\\html\\entities.py',
   'PYMODULE'),
  ('pydoc_data.topics',
   'C:\\Users\\natal\\AppData\\Local\\Programs\\Python\\Python39\\lib\\pydoc_data\\topics.py',
   'PYMODULE'),
  ('pydoc_data',
   'C:\\Users\\natal\\AppData\\Local\\Programs\\Python\\Python39\\lib\\pydoc_data\\__init__.py',
   'PYMODULE'),
  ('tty',
   'C:\\Users\\natal\\AppData\\Local\\Programs\\Python\\Python39\\lib\\tty.py',
   'PYMODULE'),
  ('glob',
   'C:\\Users\\natal\\AppData\\Local\\Programs\\Python\\Python39\\lib\\glob.py',
   'PYMODULE'),
  ('code',
   'C:\\Users\\natal\\AppData\\Local\\Programs\\Python\\Python39\\lib\\code.py',
   'PYMODULE'),
  ('codeop',
   'C:\\Users\\natal\\AppData\\Local\\Programs\\Python\\Python39\\lib\\codeop.py',
   'PYMODULE'),
  ('bdb',
   'C:\\Users\\natal\\AppData\\Local\\Programs\\Python\\Python39\\lib\\bdb.py',
   'PYMODULE'),
  ('cmd',
   'C:\\Users\\natal\\AppData\\Local\\Programs\\Python\\Python39\\lib\\cmd.py',
   'PYMODULE'),
  ('difflib',
   'C:\\Users\\natal\\AppData\\Local\\Programs\\Python\\Python39\\lib\\difflib.py',
   'PYMODULE'),
  ('unittest.case',
   'C:\\Users\\natal\\AppData\\Local\\Programs\\Python\\Python39\\lib\\unittest\\case.py',
   'PYMODULE'),
  ('unittest._log',
   'C:\\Users\\natal\\AppData\\Local\\Programs\\Python\\Python39\\lib\\unittest\\_log.py',
   'PYMODULE'),
  ('unittest.util',
   'C:\\Users\\natal\\AppData\\Local\\Programs\\Python\\Python39\\lib\\unittest\\util.py',
   'PYMODULE'),
  ('unittest.result',
   'C:\\Users\\natal\\AppData\\Local\\Programs\\Python\\Python39\\lib\\unittest\\result.py',
   'PYMODULE'),
  ('platform',
   'C:\\Users\\natal\\AppData\\Local\\Programs\\Python\\Python39\\lib\\platform.py',
   'PYMODULE'),
  ('numpy.testing._private',
   'C:\\Users\\natal\\OneDrive\\Documents\\OneDrive\\Documents\\Dyacon\\wind_sensor_software\\testenv\\Lib\\site-packages\\numpy\\testing\\_private\\__init__.py',
   'PYMODULE'),
  ('unittest',
   'C:\\Users\\natal\\AppData\\Local\\Programs\\Python\\Python39\\lib\\unittest\\__init__.py',
   'PYMODULE'),
  ('unittest.async_case',
   'C:\\Users\\natal\\AppData\\Local\\Programs\\Python\\Python39\\lib\\unittest\\async_case.py',
   'PYMODULE'),
  ('asyncio',
   'C:\\Users\\natal\\AppData\\Local\\Programs\\Python\\Python39\\lib\\asyncio\\__init__.py',
   'PYMODULE'),
  ('asyncio.unix_events',
   'C:\\Users\\natal\\AppData\\Local\\Programs\\Python\\Python39\\lib\\asyncio\\unix_events.py',
   'PYMODULE'),
  ('asyncio.log',
   'C:\\Users\\natal\\AppData\\Local\\Programs\\Python\\Python39\\lib\\asyncio\\log.py',
   'PYMODULE'),
  ('asyncio.windows_events',
   'C:\\Users\\natal\\AppData\\Local\\Programs\\Python\\Python39\\lib\\asyncio\\windows_events.py',
   'PYMODULE'),
  ('asyncio.windows_utils',
   'C:\\Users\\natal\\AppData\\Local\\Programs\\Python\\Python39\\lib\\asyncio\\windows_utils.py',
   'PYMODULE'),
  ('asyncio.selector_events',
   'C:\\Users\\natal\\AppData\\Local\\Programs\\Python\\Python39\\lib\\asyncio\\selector_events.py',
   'PYMODULE'),
  ('asyncio.proactor_events',
   'C:\\Users\\natal\\AppData\\Local\\Programs\\Python\\Python39\\lib\\asyncio\\proactor_events.py',
   'PYMODULE'),
  ('asyncio.base_subprocess',
   'C:\\Users\\natal\\AppData\\Local\\Programs\\Python\\Python39\\lib\\asyncio\\base_subprocess.py',
   'PYMODULE'),
  ('asyncio.threads',
   'C:\\Users\\natal\\AppData\\Local\\Programs\\Python\\Python39\\lib\\asyncio\\threads.py',
   'PYMODULE'),
  ('asyncio.subprocess',
   'C:\\Users\\natal\\AppData\\Local\\Programs\\Python\\Python39\\lib\\asyncio\\subprocess.py',
   'PYMODULE'),
  ('asyncio.streams',
   'C:\\Users\\natal\\AppData\\Local\\Programs\\Python\\Python39\\lib\\asyncio\\streams.py',
   'PYMODULE'),
  ('asyncio.queues',
   'C:\\Users\\natal\\AppData\\Local\\Programs\\Python\\Python39\\lib\\asyncio\\queues.py',
   'PYMODULE'),
  ('asyncio.runners',
   'C:\\Users\\natal\\AppData\\Local\\Programs\\Python\\Python39\\lib\\asyncio\\runners.py',
   'PYMODULE'),
  ('asyncio.events',
   'C:\\Users\\natal\\AppData\\Local\\Programs\\Python\\Python39\\lib\\asyncio\\events.py',
   'PYMODULE'),
  ('asyncio.base_events',
   'C:\\Users\\natal\\AppData\\Local\\Programs\\Python\\Python39\\lib\\asyncio\\base_events.py',
   'PYMODULE'),
  ('concurrent.futures',
   'C:\\Users\\natal\\AppData\\Local\\Programs\\Python\\Python39\\lib\\concurrent\\futures\\__init__.py',
   'PYMODULE'),
  ('concurrent.futures.thread',
   'C:\\Users\\natal\\AppData\\Local\\Programs\\Python\\Python39\\lib\\concurrent\\futures\\thread.py',
   'PYMODULE'),
  ('concurrent.futures.process',
   'C:\\Users\\natal\\AppData\\Local\\Programs\\Python\\Python39\\lib\\concurrent\\futures\\process.py',
   'PYMODULE'),
  ('concurrent.futures._base',
   'C:\\Users\\natal\\AppData\\Local\\Programs\\Python\\Python39\\lib\\concurrent\\futures\\_base.py',
   'PYMODULE'),
  ('concurrent',
   'C:\\Users\\natal\\AppData\\Local\\Programs\\Python\\Python39\\lib\\concurrent\\__init__.py',
   'PYMODULE'),
  ('asyncio.trsock',
   'C:\\Users\\natal\\AppData\\Local\\Programs\\Python\\Python39\\lib\\asyncio\\trsock.py',
   'PYMODULE'),
  ('asyncio.staggered',
   'C:\\Users\\natal\\AppData\\Local\\Programs\\Python\\Python39\\lib\\asyncio\\staggered.py',
   'PYMODULE'),
  ('asyncio.tasks',
   'C:\\Users\\natal\\AppData\\Local\\Programs\\Python\\Python39\\lib\\asyncio\\tasks.py',
   'PYMODULE'),
  ('asyncio.base_tasks',
   'C:\\Users\\natal\\AppData\\Local\\Programs\\Python\\Python39\\lib\\asyncio\\base_tasks.py',
   'PYMODULE'),
  ('asyncio.locks',
   'C:\\Users\\natal\\AppData\\Local\\Programs\\Python\\Python39\\lib\\asyncio\\locks.py',
   'PYMODULE'),
  ('asyncio.sslproto',
   'C:\\Users\\natal\\AppData\\Local\\Programs\\Python\\Python39\\lib\\asyncio\\sslproto.py',
   'PYMODULE'),
  ('asyncio.transports',
   'C:\\Users\\natal\\AppData\\Local\\Programs\\Python\\Python39\\lib\\asyncio\\transports.py',
   'PYMODULE'),
  ('asyncio.protocols',
   'C:\\Users\\natal\\AppData\\Local\\Programs\\Python\\Python39\\lib\\asyncio\\protocols.py',
   'PYMODULE'),
  ('asyncio.futures',
   'C:\\Users\\natal\\AppData\\Local\\Programs\\Python\\Python39\\lib\\asyncio\\futures.py',
   'PYMODULE'),
  ('asyncio.exceptions',
   'C:\\Users\\natal\\AppData\\Local\\Programs\\Python\\Python39\\lib\\asyncio\\exceptions.py',
   'PYMODULE'),
  ('asyncio.coroutines',
   'C:\\Users\\natal\\AppData\\Local\\Programs\\Python\\Python39\\lib\\asyncio\\coroutines.py',
   'PYMODULE'),
  ('asyncio.base_futures',
   'C:\\Users\\natal\\AppData\\Local\\Programs\\Python\\Python39\\lib\\asyncio\\base_futures.py',
   'PYMODULE'),
  ('asyncio.format_helpers',
   'C:\\Users\\natal\\AppData\\Local\\Programs\\Python\\Python39\\lib\\asyncio\\format_helpers.py',
   'PYMODULE'),
  ('asyncio.constants',
   'C:\\Users\\natal\\AppData\\Local\\Programs\\Python\\Python39\\lib\\asyncio\\constants.py',
   'PYMODULE'),
  ('unittest.signals',
   'C:\\Users\\natal\\AppData\\Local\\Programs\\Python\\Python39\\lib\\unittest\\signals.py',
   'PYMODULE'),
  ('unittest.main',
   'C:\\Users\\natal\\AppData\\Local\\Programs\\Python\\Python39\\lib\\unittest\\main.py',
   'PYMODULE'),
  ('unittest.runner',
   'C:\\Users\\natal\\AppData\\Local\\Programs\\Python\\Python39\\lib\\unittest\\runner.py',
   'PYMODULE'),
  ('unittest.loader',
   'C:\\Users\\natal\\AppData\\Local\\Programs\\Python\\Python39\\lib\\unittest\\loader.py',
   'PYMODULE'),
  ('unittest.suite',
   'C:\\Users\\natal\\AppData\\Local\\Programs\\Python\\Python39\\lib\\unittest\\suite.py',
   'PYMODULE'),
  ('numpy.matrixlib',
   'C:\\Users\\natal\\OneDrive\\Documents\\OneDrive\\Documents\\Dyacon\\wind_sensor_software\\testenv\\Lib\\site-packages\\numpy\\matrixlib\\__init__.py',
   'PYMODULE'),
  ('numpy.matrixlib.defmatrix',
   'C:\\Users\\natal\\OneDrive\\Documents\\OneDrive\\Documents\\Dyacon\\wind_sensor_software\\testenv\\Lib\\site-packages\\numpy\\matrixlib\\defmatrix.py',
   'PYMODULE'),
  ('numpy.ma',
   'C:\\Users\\natal\\OneDrive\\Documents\\OneDrive\\Documents\\Dyacon\\wind_sensor_software\\testenv\\Lib\\site-packages\\numpy\\ma\\__init__.py',
   'PYMODULE'),
  ('numpy.ma.extras',
   'C:\\Users\\natal\\OneDrive\\Documents\\OneDrive\\Documents\\Dyacon\\wind_sensor_software\\testenv\\Lib\\site-packages\\numpy\\ma\\extras.py',
   'PYMODULE'),
  ('numpy.lib.index_tricks',
   'C:\\Users\\natal\\OneDrive\\Documents\\OneDrive\\Documents\\Dyacon\\wind_sensor_software\\testenv\\Lib\\site-packages\\numpy\\lib\\index_tricks.py',
   'PYMODULE'),
  ('numpy.lib.function_base',
   'C:\\Users\\natal\\OneDrive\\Documents\\OneDrive\\Documents\\Dyacon\\wind_sensor_software\\testenv\\Lib\\site-packages\\numpy\\lib\\function_base.py',
   'PYMODULE'),
  ('numpy.lib.histograms',
   'C:\\Users\\natal\\OneDrive\\Documents\\OneDrive\\Documents\\Dyacon\\wind_sensor_software\\testenv\\Lib\\site-packages\\numpy\\lib\\histograms.py',
   'PYMODULE'),
  ('numpy.lib.twodim_base',
   'C:\\Users\\natal\\OneDrive\\Documents\\OneDrive\\Documents\\Dyacon\\wind_sensor_software\\testenv\\Lib\\site-packages\\numpy\\lib\\twodim_base.py',
   'PYMODULE'),
  ('numpy.core.function_base',
   'C:\\Users\\natal\\OneDrive\\Documents\\OneDrive\\Documents\\Dyacon\\wind_sensor_software\\testenv\\Lib\\site-packages\\numpy\\core\\function_base.py',
   'PYMODULE'),
  ('numpy.ma.core',
   'C:\\Users\\natal\\OneDrive\\Documents\\OneDrive\\Documents\\Dyacon\\wind_sensor_software\\testenv\\Lib\\site-packages\\numpy\\ma\\core.py',
   'PYMODULE'),
  ('numpy.ctypeslib',
   'C:\\Users\\natal\\OneDrive\\Documents\\OneDrive\\Documents\\Dyacon\\wind_sensor_software\\testenv\\Lib\\site-packages\\numpy\\ctypeslib.py',
   'PYMODULE'),
  ('numpy.core._internal',
   'C:\\Users\\natal\\OneDrive\\Documents\\OneDrive\\Documents\\Dyacon\\wind_sensor_software\\testenv\\Lib\\site-packages\\numpy\\core\\_internal.py',
   'PYMODULE'),
  ('numpy.random',
   'C:\\Users\\natal\\OneDrive\\Documents\\OneDrive\\Documents\\Dyacon\\wind_sensor_software\\testenv\\Lib\\site-packages\\numpy\\random\\__init__.py',
   'PYMODULE'),
  ('numpy.random._pickle',
   'C:\\Users\\natal\\OneDrive\\Documents\\OneDrive\\Documents\\Dyacon\\wind_sensor_software\\testenv\\Lib\\site-packages\\numpy\\random\\_pickle.py',
   'PYMODULE'),
  ('numpy.polynomial',
   'C:\\Users\\natal\\OneDrive\\Documents\\OneDrive\\Documents\\Dyacon\\wind_sensor_software\\testenv\\Lib\\site-packages\\numpy\\polynomial\\__init__.py',
   'PYMODULE'),
  ('numpy.polynomial._polybase',
   'C:\\Users\\natal\\OneDrive\\Documents\\OneDrive\\Documents\\Dyacon\\wind_sensor_software\\testenv\\Lib\\site-packages\\numpy\\polynomial\\_polybase.py',
   'PYMODULE'),
  ('numpy.polynomial.laguerre',
   'C:\\Users\\natal\\OneDrive\\Documents\\OneDrive\\Documents\\Dyacon\\wind_sensor_software\\testenv\\Lib\\site-packages\\numpy\\polynomial\\laguerre.py',
   'PYMODULE'),
  ('numpy.polynomial.hermite_e',
   'C:\\Users\\natal\\OneDrive\\Documents\\OneDrive\\Documents\\Dyacon\\wind_sensor_software\\testenv\\Lib\\site-packages\\numpy\\polynomial\\hermite_e.py',
   'PYMODULE'),
  ('numpy.polynomial.hermite',
   'C:\\Users\\natal\\OneDrive\\Documents\\OneDrive\\Documents\\Dyacon\\wind_sensor_software\\testenv\\Lib\\site-packages\\numpy\\polynomial\\hermite.py',
   'PYMODULE'),
  ('numpy.polynomial.legendre',
   'C:\\Users\\natal\\OneDrive\\Documents\\OneDrive\\Documents\\Dyacon\\wind_sensor_software\\testenv\\Lib\\site-packages\\numpy\\polynomial\\legendre.py',
   'PYMODULE'),
  ('numpy.polynomial.chebyshev',
   'C:\\Users\\natal\\OneDrive\\Documents\\OneDrive\\Documents\\Dyacon\\wind_sensor_software\\testenv\\Lib\\site-packages\\numpy\\polynomial\\chebyshev.py',
   'PYMODULE'),
  ('numpy.polynomial.polynomial',
   'C:\\Users\\natal\\OneDrive\\Documents\\OneDrive\\Documents\\Dyacon\\wind_sensor_software\\testenv\\Lib\\site-packages\\numpy\\polynomial\\polynomial.py',
   'PYMODULE'),
  ('numpy.polynomial.polyutils',
   'C:\\Users\\natal\\OneDrive\\Documents\\OneDrive\\Documents\\Dyacon\\wind_sensor_software\\testenv\\Lib\\site-packages\\numpy\\polynomial\\polyutils.py',
   'PYMODULE'),
  ('numpy.fft',
   'C:\\Users\\natal\\OneDrive\\Documents\\OneDrive\\Documents\\Dyacon\\wind_sensor_software\\testenv\\Lib\\site-packages\\numpy\\fft\\__init__.py',
   'PYMODULE'),
  ('numpy.fft.helper',
   'C:\\Users\\natal\\OneDrive\\Documents\\OneDrive\\Documents\\Dyacon\\wind_sensor_software\\testenv\\Lib\\site-packages\\numpy\\fft\\helper.py',
   'PYMODULE'),
  ('numpy.fft._pocketfft',
   'C:\\Users\\natal\\OneDrive\\Documents\\OneDrive\\Documents\\Dyacon\\wind_sensor_software\\testenv\\Lib\\site-packages\\numpy\\fft\\_pocketfft.py',
   'PYMODULE'),
  ('numpy.linalg',
   'C:\\Users\\natal\\OneDrive\\Documents\\OneDrive\\Documents\\Dyacon\\wind_sensor_software\\testenv\\Lib\\site-packages\\numpy\\linalg\\__init__.py',
   'PYMODULE'),
  ('numpy.linalg.linalg',
   'C:\\Users\\natal\\OneDrive\\Documents\\OneDrive\\Documents\\Dyacon\\wind_sensor_software\\testenv\\Lib\\site-packages\\numpy\\linalg\\linalg.py',
   'PYMODULE'),
  ('numpy._typing',
   'C:\\Users\\natal\\OneDrive\\Documents\\OneDrive\\Documents\\Dyacon\\wind_sensor_software\\testenv\\Lib\\site-packages\\numpy\\_typing\\__init__.py',
   'PYMODULE'),
  ('numpy._typing._array_like',
   'C:\\Users\\natal\\OneDrive\\Documents\\OneDrive\\Documents\\Dyacon\\wind_sensor_software\\testenv\\Lib\\site-packages\\numpy\\_typing\\_array_like.py',
   'PYMODULE'),
  ('numpy._typing._dtype_like',
   'C:\\Users\\natal\\OneDrive\\Documents\\OneDrive\\Documents\\Dyacon\\wind_sensor_software\\testenv\\Lib\\site-packages\\numpy\\_typing\\_dtype_like.py',
   'PYMODULE'),
  ('numpy._typing._shape',
   'C:\\Users\\natal\\OneDrive\\Documents\\OneDrive\\Documents\\Dyacon\\wind_sensor_software\\testenv\\Lib\\site-packages\\numpy\\_typing\\_shape.py',
   'PYMODULE'),
  ('numpy._typing._scalars',
   'C:\\Users\\natal\\OneDrive\\Documents\\OneDrive\\Documents\\Dyacon\\wind_sensor_software\\testenv\\Lib\\site-packages\\numpy\\_typing\\_scalars.py',
   'PYMODULE'),
  ('numpy._typing._char_codes',
   'C:\\Users\\natal\\OneDrive\\Documents\\OneDrive\\Documents\\Dyacon\\wind_sensor_software\\testenv\\Lib\\site-packages\\numpy\\_typing\\_char_codes.py',
   'PYMODULE'),
  ('numpy._typing._nbit',
   'C:\\Users\\natal\\OneDrive\\Documents\\OneDrive\\Documents\\Dyacon\\wind_sensor_software\\testenv\\Lib\\site-packages\\numpy\\_typing\\_nbit.py',
   'PYMODULE'),
  ('numpy._typing._nested_sequence',
   'C:\\Users\\natal\\OneDrive\\Documents\\OneDrive\\Documents\\Dyacon\\wind_sensor_software\\testenv\\Lib\\site-packages\\numpy\\_typing\\_nested_sequence.py',
   'PYMODULE'),
  ('numpy.lib',
   'C:\\Users\\natal\\OneDrive\\Documents\\OneDrive\\Documents\\Dyacon\\wind_sensor_software\\testenv\\Lib\\site-packages\\numpy\\lib\\__init__.py',
   'PYMODULE'),
  ('numpy.lib._version',
   'C:\\Users\\natal\\OneDrive\\Documents\\OneDrive\\Documents\\Dyacon\\wind_sensor_software\\testenv\\Lib\\site-packages\\numpy\\lib\\_version.py',
   'PYMODULE'),
  ('numpy.lib.arraypad',
   'C:\\Users\\natal\\OneDrive\\Documents\\OneDrive\\Documents\\Dyacon\\wind_sensor_software\\testenv\\Lib\\site-packages\\numpy\\lib\\arraypad.py',
   'PYMODULE'),
  ('numpy.lib.arrayterator',
   'C:\\Users\\natal\\OneDrive\\Documents\\OneDrive\\Documents\\Dyacon\\wind_sensor_software\\testenv\\Lib\\site-packages\\numpy\\lib\\arrayterator.py',
   'PYMODULE'),
  ('numpy.lib.npyio',
   'C:\\Users\\natal\\OneDrive\\Documents\\OneDrive\\Documents\\Dyacon\\wind_sensor_software\\testenv\\Lib\\site-packages\\numpy\\lib\\npyio.py',
   'PYMODULE'),
  ('numpy.lib._datasource',
   'C:\\Users\\natal\\OneDrive\\Documents\\OneDrive\\Documents\\Dyacon\\wind_sensor_software\\testenv\\Lib\\site-packages\\numpy\\lib\\_datasource.py',
   'PYMODULE'),
  ('numpy.lib.format',
   'C:\\Users\\natal\\OneDrive\\Documents\\OneDrive\\Documents\\Dyacon\\wind_sensor_software\\testenv\\Lib\\site-packages\\numpy\\lib\\format.py',
   'PYMODULE'),
  ('numpy.lib.arraysetops',
   'C:\\Users\\natal\\OneDrive\\Documents\\OneDrive\\Documents\\Dyacon\\wind_sensor_software\\testenv\\Lib\\site-packages\\numpy\\lib\\arraysetops.py',
   'PYMODULE'),
  ('numpy.lib.utils',
   'C:\\Users\\natal\\OneDrive\\Documents\\OneDrive\\Documents\\Dyacon\\wind_sensor_software\\testenv\\Lib\\site-packages\\numpy\\lib\\utils.py',
   'PYMODULE'),
  ('numpy.lib.polynomial',
   'C:\\Users\\natal\\OneDrive\\Documents\\OneDrive\\Documents\\Dyacon\\wind_sensor_software\\testenv\\Lib\\site-packages\\numpy\\lib\\polynomial.py',
   'PYMODULE'),
  ('numpy.lib.ufunclike',
   'C:\\Users\\natal\\OneDrive\\Documents\\OneDrive\\Documents\\Dyacon\\wind_sensor_software\\testenv\\Lib\\site-packages\\numpy\\lib\\ufunclike.py',
   'PYMODULE'),
  ('numpy.lib.shape_base',
   'C:\\Users\\natal\\OneDrive\\Documents\\OneDrive\\Documents\\Dyacon\\wind_sensor_software\\testenv\\Lib\\site-packages\\numpy\\lib\\shape_base.py',
   'PYMODULE'),
  ('numpy.lib.nanfunctions',
   'C:\\Users\\natal\\OneDrive\\Documents\\OneDrive\\Documents\\Dyacon\\wind_sensor_software\\testenv\\Lib\\site-packages\\numpy\\lib\\nanfunctions.py',
   'PYMODULE'),
  ('numpy.lib.type_check',
   'C:\\Users\\natal\\OneDrive\\Documents\\OneDrive\\Documents\\Dyacon\\wind_sensor_software\\testenv\\Lib\\site-packages\\numpy\\lib\\type_check.py',
   'PYMODULE'),
  ('numpy.core.getlimits',
   'C:\\Users\\natal\\OneDrive\\Documents\\OneDrive\\Documents\\Dyacon\\wind_sensor_software\\testenv\\Lib\\site-packages\\numpy\\core\\getlimits.py',
   'PYMODULE'),
  ('numpy.core._machar',
   'C:\\Users\\natal\\OneDrive\\Documents\\OneDrive\\Documents\\Dyacon\\wind_sensor_software\\testenv\\Lib\\site-packages\\numpy\\core\\_machar.py',
   'PYMODULE'),
  ('numpy.lib.scimath',
   'C:\\Users\\natal\\OneDrive\\Documents\\OneDrive\\Documents\\Dyacon\\wind_sensor_software\\testenv\\Lib\\site-packages\\numpy\\lib\\scimath.py',
   'PYMODULE'),
  ('numpy.lib.mixins',
   'C:\\Users\\natal\\OneDrive\\Documents\\OneDrive\\Documents\\Dyacon\\wind_sensor_software\\testenv\\Lib\\site-packages\\numpy\\lib\\mixins.py',
   'PYMODULE'),
  ('numpy.dtypes',
   'C:\\Users\\natal\\OneDrive\\Documents\\OneDrive\\Documents\\Dyacon\\wind_sensor_software\\testenv\\Lib\\site-packages\\numpy\\dtypes.py',
   'PYMODULE'),
  ('numpy.compat',
   'C:\\Users\\natal\\OneDrive\\Documents\\OneDrive\\Documents\\Dyacon\\wind_sensor_software\\testenv\\Lib\\site-packages\\numpy\\compat\\__init__.py',
   'PYMODULE'),
  ('numpy.compat.py3k',
   'C:\\Users\\natal\\OneDrive\\Documents\\OneDrive\\Documents\\Dyacon\\wind_sensor_software\\testenv\\Lib\\site-packages\\numpy\\compat\\py3k.py',
   'PYMODULE'),
  ('numpy.core',
   'C:\\Users\\natal\\OneDrive\\Documents\\OneDrive\\Documents\\Dyacon\\wind_sensor_software\\testenv\\Lib\\site-packages\\numpy\\core\\__init__.py',
   'PYMODULE'),
  ('numpy.core._add_newdocs_scalars',
   'C:\\Users\\natal\\OneDrive\\Documents\\OneDrive\\Documents\\Dyacon\\wind_sensor_software\\testenv\\Lib\\site-packages\\numpy\\core\\_add_newdocs_scalars.py',
   'PYMODULE'),
  ('numpy.core._add_newdocs',
   'C:\\Users\\natal\\OneDrive\\Documents\\OneDrive\\Documents\\Dyacon\\wind_sensor_software\\testenv\\Lib\\site-packages\\numpy\\core\\_add_newdocs.py',
   'PYMODULE'),
  ('numpy.core.einsumfunc',
   'C:\\Users\\natal\\OneDrive\\Documents\\OneDrive\\Documents\\Dyacon\\wind_sensor_software\\testenv\\Lib\\site-packages\\numpy\\core\\einsumfunc.py',
   'PYMODULE'),
  ('numpy.core.memmap',
   'C:\\Users\\natal\\OneDrive\\Documents\\OneDrive\\Documents\\Dyacon\\wind_sensor_software\\testenv\\Lib\\site-packages\\numpy\\core\\memmap.py',
   'PYMODULE'),
  ('numpy.core.defchararray',
   'C:\\Users\\natal\\OneDrive\\Documents\\OneDrive\\Documents\\Dyacon\\wind_sensor_software\\testenv\\Lib\\site-packages\\numpy\\core\\defchararray.py',
   'PYMODULE'),
  ('numpy.__config__',
   'C:\\Users\\natal\\OneDrive\\Documents\\OneDrive\\Documents\\Dyacon\\wind_sensor_software\\testenv\\Lib\\site-packages\\numpy\\__config__.py',
   'PYMODULE'),
  ('numpy.array_api',
   'C:\\Users\\natal\\OneDrive\\Documents\\OneDrive\\Documents\\Dyacon\\wind_sensor_software\\testenv\\Lib\\site-packages\\numpy\\array_api\\__init__.py',
   'PYMODULE'),
  ('numpy.array_api._utility_functions',
   'C:\\Users\\natal\\OneDrive\\Documents\\OneDrive\\Documents\\Dyacon\\wind_sensor_software\\testenv\\Lib\\site-packages\\numpy\\array_api\\_utility_functions.py',
   'PYMODULE'),
  ('numpy.array_api._array_object',
   'C:\\Users\\natal\\OneDrive\\Documents\\OneDrive\\Documents\\Dyacon\\wind_sensor_software\\testenv\\Lib\\site-packages\\numpy\\array_api\\_array_object.py',
   'PYMODULE'),
  ('numpy.typing',
   'C:\\Users\\natal\\OneDrive\\Documents\\OneDrive\\Documents\\Dyacon\\wind_sensor_software\\testenv\\Lib\\site-packages\\numpy\\typing\\__init__.py',
   'PYMODULE'),
  ('numpy._typing._add_docstring',
   'C:\\Users\\natal\\OneDrive\\Documents\\OneDrive\\Documents\\Dyacon\\wind_sensor_software\\testenv\\Lib\\site-packages\\numpy\\_typing\\_add_docstring.py',
   'PYMODULE'),
  ('numpy.array_api._typing',
   'C:\\Users\\natal\\OneDrive\\Documents\\OneDrive\\Documents\\Dyacon\\wind_sensor_software\\testenv\\Lib\\site-packages\\numpy\\array_api\\_typing.py',
   'PYMODULE'),
  ('numpy.array_api._statistical_functions',
   'C:\\Users\\natal\\OneDrive\\Documents\\OneDrive\\Documents\\Dyacon\\wind_sensor_software\\testenv\\Lib\\site-packages\\numpy\\array_api\\_statistical_functions.py',
   'PYMODULE'),
  ('numpy.array_api._sorting_functions',
   'C:\\Users\\natal\\OneDrive\\Documents\\OneDrive\\Documents\\Dyacon\\wind_sensor_software\\testenv\\Lib\\site-packages\\numpy\\array_api\\_sorting_functions.py',
   'PYMODULE'),
  ('numpy.array_api._set_functions',
   'C:\\Users\\natal\\OneDrive\\Documents\\OneDrive\\Documents\\Dyacon\\wind_sensor_software\\testenv\\Lib\\site-packages\\numpy\\array_api\\_set_functions.py',
   'PYMODULE'),
  ('numpy.array_api._searching_functions',
   'C:\\Users\\natal\\OneDrive\\Documents\\OneDrive\\Documents\\Dyacon\\wind_sensor_software\\testenv\\Lib\\site-packages\\numpy\\array_api\\_searching_functions.py',
   'PYMODULE'),
  ('numpy.array_api._manipulation_functions',
   'C:\\Users\\natal\\OneDrive\\Documents\\OneDrive\\Documents\\Dyacon\\wind_sensor_software\\testenv\\Lib\\site-packages\\numpy\\array_api\\_manipulation_functions.py',
   'PYMODULE'),
  ('numpy.array_api.linalg',
   'C:\\Users\\natal\\OneDrive\\Documents\\OneDrive\\Documents\\Dyacon\\wind_sensor_software\\testenv\\Lib\\site-packages\\numpy\\array_api\\linalg.py',
   'PYMODULE'),
  ('numpy.array_api._indexing_functions',
   'C:\\Users\\natal\\OneDrive\\Documents\\OneDrive\\Documents\\Dyacon\\wind_sensor_software\\testenv\\Lib\\site-packages\\numpy\\array_api\\_indexing_functions.py',
   'PYMODULE'),
  ('numpy.array_api._elementwise_functions',
   'C:\\Users\\natal\\OneDrive\\Documents\\OneDrive\\Documents\\Dyacon\\wind_sensor_software\\testenv\\Lib\\site-packages\\numpy\\array_api\\_elementwise_functions.py',
   'PYMODULE'),
  ('numpy.array_api._dtypes',
   'C:\\Users\\natal\\OneDrive\\Documents\\OneDrive\\Documents\\Dyacon\\wind_sensor_software\\testenv\\Lib\\site-packages\\numpy\\array_api\\_dtypes.py',
   'PYMODULE'),
  ('numpy.array_api._data_type_functions',
   'C:\\Users\\natal\\OneDrive\\Documents\\OneDrive\\Documents\\Dyacon\\wind_sensor_software\\testenv\\Lib\\site-packages\\numpy\\array_api\\_data_type_functions.py',
   'PYMODULE'),
  ('dataclasses',
   'C:\\Users\\natal\\AppData\\Local\\Programs\\Python\\Python39\\lib\\dataclasses.py',
   'PYMODULE'),
  ('numpy.array_api._creation_functions',
   'C:\\Users\\natal\\OneDrive\\Documents\\OneDrive\\Documents\\Dyacon\\wind_sensor_software\\testenv\\Lib\\site-packages\\numpy\\array_api\\_creation_functions.py',
   'PYMODULE'),
  ('numpy.array_api._constants',
   'C:\\Users\\natal\\OneDrive\\Documents\\OneDrive\\Documents\\Dyacon\\wind_sensor_software\\testenv\\Lib\\site-packages\\numpy\\array_api\\_constants.py',
   'PYMODULE'),
  ('numpy._distributor_init',
   'C:\\Users\\natal\\OneDrive\\Documents\\OneDrive\\Documents\\Dyacon\\wind_sensor_software\\testenv\\Lib\\site-packages\\numpy\\_distributor_init.py',
   'PYMODULE'),
  ('numpy.exceptions',
   'C:\\Users\\natal\\OneDrive\\Documents\\OneDrive\\Documents\\Dyacon\\wind_sensor_software\\testenv\\Lib\\site-packages\\numpy\\exceptions.py',
   'PYMODULE'),
  ('numpy._globals',
   'C:\\Users\\natal\\OneDrive\\Documents\\OneDrive\\Documents\\Dyacon\\wind_sensor_software\\testenv\\Lib\\site-packages\\numpy\\_globals.py',
   'PYMODULE'),
  ('threading',
   'C:\\Users\\natal\\AppData\\Local\\Programs\\Python\\Python39\\lib\\threading.py',
   'PYMODULE'),
  ('_threading_local',
   'C:\\Users\\natal\\AppData\\Local\\Programs\\Python\\Python39\\lib\\_threading_local.py',
   'PYMODULE'),
  ('minimalmodbus',
   'C:\\Users\\natal\\OneDrive\\Documents\\OneDrive\\Documents\\Dyacon\\wind_sensor_software\\testenv\\Lib\\site-packages\\minimalmodbus.py',
   'PYMODULE'),
  ('serial.tools.list_ports',
   'C:\\Users\\natal\\OneDrive\\Documents\\OneDrive\\Documents\\Dyacon\\wind_sensor_software\\testenv\\Lib\\site-packages\\serial\\tools\\list_ports.py',
   'PYMODULE'),
  ('serial.tools',
   'C:\\Users\\natal\\OneDrive\\Documents\\OneDrive\\Documents\\Dyacon\\wind_sensor_software\\testenv\\Lib\\site-packages\\serial\\tools\\__init__.py',
   'PYMODULE'),
  ('serial.tools.list_ports_common',
   'C:\\Users\\natal\\OneDrive\\Documents\\OneDrive\\Documents\\Dyacon\\wind_sensor_software\\testenv\\Lib\\site-packages\\serial\\tools\\list_ports_common.py',
   'PYMODULE'),
  ('serial.tools.list_ports_posix',
   'C:\\Users\\natal\\OneDrive\\Documents\\OneDrive\\Documents\\Dyacon\\wind_sensor_software\\testenv\\Lib\\site-packages\\serial\\tools\\list_ports_posix.py',
   'PYMODULE'),
  ('serial.tools.list_ports_osx',
   'C:\\Users\\natal\\OneDrive\\Documents\\OneDrive\\Documents\\Dyacon\\wind_sensor_software\\testenv\\Lib\\site-packages\\serial\\tools\\list_ports_osx.py',
   'PYMODULE'),
  ('serial.tools.list_ports_linux',
   'C:\\Users\\natal\\OneDrive\\Documents\\OneDrive\\Documents\\Dyacon\\wind_sensor_software\\testenv\\Lib\\site-packages\\serial\\tools\\list_ports_linux.py',
   'PYMODULE'),
  ('serial.tools.list_ports_windows',
   'C:\\Users\\natal\\OneDrive\\Documents\\OneDrive\\Documents\\Dyacon\\wind_sensor_software\\testenv\\Lib\\site-packages\\serial\\tools\\list_ports_windows.py',
   'PYMODULE'),
  ('PySimpleGUI',
   'C:\\Users\\natal\\OneDrive\\Documents\\OneDrive\\Documents\\Dyacon\\wind_sensor_software\\testenv\\Lib\\site-packages\\PySimpleGUI\\__init__.py',
   'PYMODULE'),
  ('PySimpleGUI.PySimpleGUI',
   'C:\\Users\\natal\\OneDrive\\Documents\\OneDrive\\Documents\\Dyacon\\wind_sensor_software\\testenv\\Lib\\site-packages\\PySimpleGUI\\PySimpleGUI.py',
   'PYMODULE'),
  ('uuid',
   'C:\\Users\\natal\\AppData\\Local\\Programs\\Python\\Python39\\lib\\uuid.py',
   'PYMODULE'),
  ('tkinter.font',
   'C:\\Users\\natal\\AppData\\Local\\Programs\\Python\\Python39\\lib\\tkinter\\font.py',
   'PYMODULE'),
  ('tkinter.ttk',
   'C:\\Users\\natal\\AppData\\Local\\Programs\\Python\\Python39\\lib\\tkinter\\ttk.py',
   'PYMODULE'),
  ('tkinter.colorchooser',
   'C:\\Users\\natal\\AppData\\Local\\Programs\\Python\\Python39\\lib\\tkinter\\colorchooser.py',
   'PYMODULE'),
  ('tkinter.commondialog',
   'C:\\Users\\natal\\AppData\\Local\\Programs\\Python\\Python39\\lib\\tkinter\\commondialog.py',
   'PYMODULE'),
  ('tkinter.filedialog',
   'C:\\Users\\natal\\AppData\\Local\\Programs\\Python\\Python39\\lib\\tkinter\\filedialog.py',
   'PYMODULE'),
  ('tkinter.simpledialog',
   'C:\\Users\\natal\\AppData\\Local\\Programs\\Python\\Python39\\lib\\tkinter\\simpledialog.py',
   'PYMODULE'),
  ('tkinter.messagebox',
   'C:\\Users\\natal\\AppData\\Local\\Programs\\Python\\Python39\\lib\\tkinter\\messagebox.py',
   'PYMODULE'),
  ('tkinter.dialog',
   'C:\\Users\\natal\\AppData\\Local\\Programs\\Python\\Python39\\lib\\tkinter\\dialog.py',
   'PYMODULE'),
  ('tkinter',
   'C:\\Users\\natal\\AppData\\Local\\Programs\\Python\\Python39\\lib\\tkinter\\__init__.py',
   'PYMODULE'),
  ('tkinter.constants',
   'C:\\Users\\natal\\AppData\\Local\\Programs\\Python\\Python39\\lib\\tkinter\\constants.py',
   'PYMODULE')])
